{
  "style": {
    "font-family": "sans-serif",
    "background-color": "#ffffff",
    "background-image": "",
    "background-size": "100%",
    "node-color": "#ffffff",
    "border-width": 4,
    "border-color": "#000000",
    "radius": 50,
    "node-padding": 5,
    "node-margin": 2,
    "outside-position": "auto",
    "node-icon-image": "",
    "node-background-image": "",
    "icon-position": "inside",
    "icon-size": 64,
    "caption-position": "inside",
    "caption-max-width": 200,
    "caption-color": "#000000",
    "caption-font-size": 50,
    "caption-font-weight": "normal",
    "label-position": "inside",
    "label-display": "pill",
    "label-color": "#000000",
    "label-background-color": "#ffffff",
    "label-border-color": "#000000",
    "label-border-width": 4,
    "label-font-size": 40,
    "label-padding": 5,
    "label-margin": 4,
    "directionality": "directed",
    "detail-position": "inline",
    "detail-orientation": "parallel",
    "arrow-width": 5,
    "arrow-color": "#000000",
    "margin-start": 5,
    "margin-end": 5,
    "margin-peer": 20,
    "attachment-start": "normal",
    "attachment-end": "normal",
    "relationship-icon-image": "",
    "type-color": "#000000",
    "type-background-color": "#ffffff",
    "type-border-color": "#000000",
    "type-border-width": 0,
    "type-font-size": 16,
    "type-padding": 5,
    "property-position": "outside",
    "property-alignment": "colon",
    "property-color": "#000000",
    "property-font-size": 16,
    "property-font-weight": "normal"
  },
  "nodes": [
    {
      "id": "n0",
      "position": {
        "x": -756.9323596514674,
        "y": 220.904920109716
      },
      "caption": "",
      "labels": [
        "Urkunde"
      ],
      "properties": {
        "Urkundennummer": "",
        "Unummer": "",
        "Zugang": "",
        "Quellendatum": "",
        "KVr": "",
        "KVv": "",
        "KVRPosition": "",
        "KVVPosition": "",
        "Beschreibstoff": "",
        "Diplomatische_Form": "",
        "Chmelbeleg": "",
        "Taxreg": "",
        "Druckbeleg": "",
        "RFIII": "",
        "Regestbeleg": "",
        "Erwähnung": "",
        "Literatur": "",
        "Foto": "",
        "Pön": "",
        "Wasserzeichen": "",
        "Nachtragsfelder": "",
        "Bemerkungen": "",
        "Sonstiges": "",
        "UrkNummer": "",
        "RfNr": "",
        "Ergibt_sich_aus": "",
        "Sachbetreff": "",
        "IndexDatum": "",
        "SF": "",
        "SortierDatum": "",
        "EditionsDatum": "",
        "Austellungsort": "",
        "Kurzregest": "",
        "ChmelRegg": "",
        "ReggF": "",
        "Weitere_Nachweise": "",
        "Merfachüberlieferung_von": "",
        "RR": "",
        "Orte": "",
        "Personen": "",
        "Urkunde": "",
        "Objektnummer": ""
      },
      "style": {}
    },
    {
      "id": "n2",
      "position": {
        "x": -291.844096346215,
        "y": 104.48163495925529
      },
      "caption": "",
      "labels": [
        "Ortsbetreff"
      ],
      "properties": {
        "Ortsname": "",
        "Ortsname der Quelle": "",
        "Ortsangaben": ""
      },
      "style": {}
    },
    {
      "id": "n3",
      "position": {
        "x": -240.03658430831723,
        "y": 434.83062552972206
      },
      "caption": "",
      "labels": [
        "Biographie"
      ],
      "properties": {
        "Biographie": "",
        "Personenname": "",
        "Lebensdaten": "",
        "Biographisches": ""
      },
      "style": {}
    },
    {
      "id": "n4",
      "position": {
        "x": -240.03658430831723,
        "y": 220.904920109716
      },
      "caption": "",
      "labels": [
        "Siegel"
      ],
      "properties": {
        "Siegel_PosseNr": "",
        "Siegelfarbe": "",
        "Sekretsiegel_PosseNr": "",
        "Sekretsiegelfarbe": ""
      },
      "style": {}
    },
    {
      "id": "n5",
      "position": {
        "x": -428.0518991659658,
        "y": 549.7853805952175
      },
      "caption": "",
      "labels": [
        "Archiv"
      ],
      "properties": {
        "label": ""
      },
      "style": {}
    },
    {
      "id": "n6",
      "position": {
        "x": -616.5237595174497,
        "y": 633.6127722041817
      },
      "caption": "",
      "labels": [
        "Region"
      ],
      "properties": {
        "label": ""
      },
      "style": {}
    },
    {
      "id": "n7",
      "position": {
        "x": -1043.0791556895613,
        "y": 549.7853805952175
      },
      "caption": "",
      "labels": [
        "Korrektor"
      ],
      "properties": {
        "name": ""
      },
      "style": {}
    },
    {
      "id": "n8",
      "position": {
        "x": -854.6043942257166,
        "y": 633.6127722041817
      },
      "caption": "",
      "labels": [
        "Erfasser"
      ],
      "properties": {
        "name": ""
      },
      "style": {}
    },
    {
      "id": "n9",
      "position": {
        "x": -1180.5230374614448,
        "y": 241.8461519451094
      },
      "caption": "",
      "labels": [
        "Sachbetreff"
      ],
      "properties": {
        "label": ""
      },
      "style": {}
    },
    {
      "id": "n10",
      "position": {
        "x": -556.8682069833575,
        "y": -52.05692285218322
      },
      "caption": "",
      "labels": [
        "Kanzlist"
      ],
      "properties": {
        "Amtsbezeichnung": ""
      },
      "style": {}
    },
    {
      "id": "n11",
      "position": {
        "x": -756.9323596514674,
        "y": -88.91285348105767
      },
      "caption": "",
      "labels": [
        "Referent"
      ],
      "properties": {},
      "style": {}
    },
    {
      "id": "n12",
      "position": {
        "x": -1144.9229521128204,
        "y": 419.6651936391867
      },
      "caption": "",
      "labels": [
        "Empfänger"
      ],
      "properties": {
        "name": ""
      },
      "style": {}
    }
  ],
  "relationships": [
    {
      "id": "n0",
      "fromId": "n0",
      "toId": "n4",
      "type": ":HAT_SIEGEL",
      "properties": {
        "Anbringung": "",
        "Schnurfarbe": "",
        "Sekretsiegellage": "",
        "Besiegelung _Anmerkungen": ""
      },
      "style": {}
    },
    {
      "id": "n1",
      "type": ":NACHWEIS_IN",
      "style": {},
      "properties": {
        "Signatur": ""
      },
      "fromId": "n0",
      "toId": "n5"
    },
    {
      "id": "n2",
      "fromId": "n0",
      "toId": "n6",
      "type": ":ERSCHLOSSEN_IN",
      "properties": {},
      "style": {}
    },
    {
      "id": "n3",
      "fromId": "n0",
      "toId": "n7",
      "type": ":KORRIGIERT_VON",
      "properties": {
        "Korrektur": ""
      },
      "style": {}
    },
    {
      "id": "n4",
      "fromId": "n0",
      "toId": "n8",
      "type": ":ERFASST_VON",
      "properties": {
        "Zugang": ""
      },
      "style": {}
    },
    {
      "id": "n5",
      "type": ":SUB_OF_S",
      "style": {},
      "properties": {},
      "fromId": "n9",
      "toId": "n9"
    },
    {
      "id": "n6",
      "type": ":SUB_OF_R",
      "style": {},
      "properties": {},
      "fromId": "n6",
      "toId": "n6"
    },
    {
      "id": "n7",
      "fromId": "n10",
      "toId": "n0",
      "type": ":ERSTELLT_VERMERK",
      "properties": {},
      "style": {}
    },
    {
      "id": "n8",
      "fromId": "n11",
      "toId": "n0",
      "type": ":REFERIERT_VERMERK",
      "properties": {},
      "style": {}
    },
    {
      "id": "n9",
      "type": ":HAT_SACHBETREFF",
      "style": {},
      "properties": {},
      "fromId": "n0",
      "toId": "n9"
    },
    {
      "id": "n10",
      "fromId": "n0",
      "toId": "n12",
      "type": ":EMPFÄNGT",
      "properties": {},
      "style": {}
    },
    {
      "id": "n11",
      "type": "SUB_OF_A",
      "style": {},
      "properties": {},
      "fromId": "n5",
      "toId": "n5"
    }
  ]
}